<svg width="50" height="50" viewBox="0 0 50 50" fill="none" xmlns="http://www.w3.org/2000/svg">
<rect width="50" height="50" rx="6" fill="#E8E7FF"/>
<path d="M22.7961 20.7971V19.2071C22.7961 18.3171 21.7161 17.8671 21.0861 18.4971L16.4961 23.0871C16.1061 23.4771 16.1061 24.1071 16.4961 24.4971L21.0861 29.0871C21.7161 29.7171 22.7961 29.2771 22.7961 28.3871V26.6971C27.7961 26.6971 31.2961 28.2971 33.7961 31.7971C32.7961 26.7971 29.7961 21.7971 22.7961 20.7971Z" fill="#4C44D7"/>
</svg>
